<?xml version="1.0" encoding="iso-8859-1"?>
<!-- Generator: Adobe Illustrator 21.1.0, SVG Export Plug-In . SVG Version: 6.00 Build 0)  -->
<svg version="1.1" id="Layer_1" xmlns="http://www.w3.org/2000/svg" xmlns:xlink="http://www.w3.org/1999/xlink" x="0px" y="0px"
	 viewBox="-49 141 512 512" style="enable-background:new -49 141 512 512;" xml:space="preserve">
<g transform="translate(1 1)">
	<path d="M171.867,377.227v-64.853c0-12.8,10.24-23.04,23.04-23.04h23.04c12.8,0,23.04,10.24,23.04,23.04v64.853l-34.133-25.6
		L171.867,377.227z M203.44,349.067L203.44,349.067L203.44,349.067z M213.68,335.413l9.387,7.68v-30.72
		c0-3.413-2.56-5.973-5.973-5.973h-23.04c-3.413,0-5.973,2.56-5.973,5.973v30.72l9.387-7.68C202.587,332,209.413,332,213.68,335.413
		L213.68,335.413z"/>
	<path d="M206,307.253c-5.12,0-8.533-3.413-8.533-8.533v-34.133c0-5.12,3.413-9.387,8.533-9.387
		c18.773,0,34.133-15.36,34.133-34.133s-15.36-34.133-34.133-34.133s-34.133,15.36-34.133,34.133c0,5.12-3.413,8.533-8.533,8.533
		c-5.12,0-8.533-3.413-8.533-8.533c0-28.16,23.04-51.2,51.2-51.2s51.2,23.04,51.2,51.2c0,25.6-18.773,46.08-42.667,50.347v26.453
		C214.533,302.987,211.12,307.253,206,307.253z"/>
	<path d="M316.933,622.133c-18.773,0-34.133-15.36-34.133-34.133v-51.2c0-18.773,15.36-34.133,34.133-34.133
		s34.133,15.36,34.133,34.133V588C351.067,606.773,335.707,622.133,316.933,622.133z M316.933,519.733
		c-9.387,0-17.067,7.68-17.067,17.067V588c0,9.387,7.68,17.067,17.067,17.067S334,597.387,334,588v-51.2
		C334,527.413,326.32,519.733,316.933,519.733z"/>
	<path d="M95.067,622.133c-18.773,0-34.133-15.36-34.133-34.133v-51.2c0-18.773,15.36-34.133,34.133-34.133
		S129.2,518.027,129.2,536.8V588C129.2,606.773,113.84,622.133,95.067,622.133z M95.067,519.733C85.68,519.733,78,527.413,78,536.8
		V588c0,9.387,7.68,17.067,17.067,17.067s17.067-7.68,17.067-17.067v-51.2C112.133,527.413,104.453,519.733,95.067,519.733z"/>
	<path d="M419.333,588H334v-51.2c0-9.387-7.68-17.067-17.067-17.067s-17.067,7.68-17.067,17.067V588H112.133v-51.2
		c0-9.387-7.68-17.067-17.067-17.067S78,527.413,78,536.8V588H-7.333c-12.8,0-24.747-5.973-33.28-15.36
		C-49.147,562.4-51.707,549.6-50,536.8c1.707-10.24,7.68-19.627,17.067-26.453L198.32,335.413c4.267-3.413,10.24-3.413,14.507,0
		L444.08,510.347c8.533,6.827,15.36,16.213,17.067,26.453c2.56,12.8-0.853,25.6-9.387,35.84C444.08,582.027,432.133,588,419.333,588
		z M351.067,570.933h68.267c7.68,0,14.507-3.413,19.627-9.387s6.827-13.653,5.12-21.333l0,0c-0.853-5.973-5.12-11.947-10.24-16.213
		L206,351.627L-21.84,524c-5.973,4.267-9.387,10.24-10.24,16.213c-1.707,7.68,0,15.36,5.12,21.333s11.947,9.387,19.627,9.387h68.267
		V536.8c0-18.773,15.36-34.133,34.133-34.133S129.2,518.027,129.2,536.8v34.133h153.6V536.8c0-18.773,15.36-34.133,34.133-34.133
		s34.133,15.36,34.133,34.133V570.933z M203.44,349.067L203.44,349.067L203.44,349.067z"/>
	<path d="M419.333,553.867H334V536.8c0-9.387-7.68-17.067-17.067-17.067s-17.067,7.68-17.067,17.067v17.067H112.133V536.8
		c0-9.387-7.68-17.067-17.067-17.067S78,527.413,78,536.8v17.067H-3.92c-4.267,0-7.68-2.56-9.387-6.827s0-8.533,3.413-11.093
		l209.92-159.573c3.413-2.56,8.533-2.56,11.947,0l0,0l217.6,164.693l-4.267,12.8H419.333z M351.067,536.8h42.667L206,394.293
		L18.267,536.8h42.667c0-18.773,15.36-34.133,34.133-34.133S129.2,518.027,129.2,536.8h153.6c0-18.773,15.36-34.133,34.133-34.133
		S351.067,518.027,351.067,536.8z"/>
</g>
</svg>
