<?xml version="1.0" encoding="iso-8859-1"?>
<!-- Generator: Adobe Illustrator 21.1.0, SVG Export Plug-In . SVG Version: 6.00 Build 0)  -->
<svg version="1.1" id="Layer_1" xmlns="http://www.w3.org/2000/svg" xmlns:xlink="http://www.w3.org/1999/xlink" x="0px" y="0px"
	 viewBox="-49 141 512 512" style="enable-background:new -49 141 512 512;" xml:space="preserve">
<path d="M412.495,251.789c-0.564-24.267-15.596-45.503-38.297-54.099l-56.714-21.478c-10.13-17.101-25.558-26.183-35.546-30.54
	c-6.906-3.012-15.298-4.671-23.63-4.671H155.693c-8.33,0-16.721,1.659-23.627,4.672c-9.938,4.335-25.263,13.345-35.394,30.281
	l-56.976,21.705C17.061,206.281,2.071,227.5,1.507,251.716l-7.615,327.443c-0.158,6.802,3.781,12.931,10.035,15.612l49.667,21.293
	l-0.002,28.919c0,2.126,0.844,4.165,2.347,5.669c1.504,1.504,3.542,2.348,5.669,2.348h119.737c3.733,0,6.971-2.577,7.811-6.213
	L207,569.472l17.841,77.315c0.84,3.637,4.078,6.213,7.811,6.213h120.005c4.427,0,8.017-3.588,8.017-8.017l0.002-29.038
	l49.396-21.175c6.255-2.681,10.195-8.81,10.036-15.612L412.495,251.789z M308.341,194.516l-26.322,6.58
	c-2.803,0.701-5.011,2.854-5.782,5.637s0.015,5.767,2.058,7.809l21.495,21.492l-70.178,134.505l41.785-176.348
	c3.435-12.76,0.808-26.093-7.217-36.601c-0.055-0.072-0.114-0.138-0.17-0.21c4.155,0.493,8.118,1.503,11.514,2.984
	C287.318,165.512,301.922,175.514,308.341,194.516z M206.999,396.441l-48.62-205.203h97.243L206.999,396.441z M230.627,157.033
	c8.23,0,15.815,3.752,20.811,10.291c1.849,2.421,3.232,5.084,4.137,7.88h-97.152c0.904-2.796,2.287-5.459,4.137-7.88
	c4.997-6.539,12.583-10.291,20.814-10.291H230.627z M138.479,160.367c3.395-1.481,7.358-2.492,11.511-2.984
	c-0.056,0.072-0.114,0.138-0.17,0.21c-8.025,10.507-10.653,23.84-7.217,36.599l41.78,176.336l-70.17-134.491l21.495-21.492
	c2.043-2.043,2.828-5.025,2.058-7.809c-0.771-2.783-2.98-4.937-5.782-5.637l-26.322-6.58
	C112.081,175.514,126.685,165.512,138.479,160.367z M174.97,636.967H69.627l0.02-325.478c0-4.427-3.588-8.017-8.017-8.017l0,0
	c-4.427,0-8.017,3.588-8.017,8.017l-0.018,287.133l-43.35-18.585c-0.202-0.087-0.329-0.284-0.324-0.504l7.615-327.443
	c0.41-17.671,11.35-33.156,27.867-39.448l43.131-16.431c-0.197,0.837-0.388,1.68-0.56,2.542c-0.839,4.196,1.765,8.312,5.917,9.35
	l20.467,5.117L98.716,228.86c-2.477,2.476-3.059,6.272-1.44,9.377l101.707,194.939v99.733L174.97,636.967z M403.754,580.035
	l-43.077,18.466l0.018-287.013c0-4.427-3.588-8.017-8.017-8.017l0,0c-4.427,0-8.017,3.588-8.017,8.017l-0.02,325.478H239.03
	L215.017,532.9v-99.721l101.711-194.942c1.62-3.105,1.037-6.902-1.44-9.377l-15.643-15.641l20.467-5.117
	c4.152-1.038,6.756-5.153,5.917-9.35c-0.159-0.798-0.338-1.578-0.518-2.355l43.008,16.287c16.566,6.273,27.536,21.769,27.947,39.479
	l7.614,327.37C404.084,579.751,403.956,579.949,403.754,580.035z"/>
<path d="M320.979,526.313l-68.409-25.653c-4.146-1.555-8.767,0.546-10.321,4.691c-1.555,4.145,0.546,8.767,4.691,10.321
	l68.409,25.653c0.928,0.347,1.878,0.512,2.813,0.512c3.246,0,6.301-1.985,7.507-5.204
	C327.226,532.488,325.126,527.867,320.979,526.313z"/>
<path d="M161.43,500.659l-68.409,25.653c-4.145,1.554-6.247,6.175-4.691,10.321c1.207,3.218,4.262,5.204,7.507,5.204
	c0.935,0,1.887-0.165,2.813-0.512l68.409-25.653c4.145-1.554,6.247-6.175,4.691-10.321
	C170.196,501.204,165.572,499.105,161.43,500.659z"/>
<path d="M189.898,225.443h34.198c4.427,0,8.017-3.589,8.017-8.017s-3.589-8.017-8.017-8.017h-34.198
	c-4.427,0-8.017,3.589-8.017,8.017S185.47,225.443,189.898,225.443z"/>
</svg>
