<?xml version="1.0" encoding="iso-8859-1"?>
<!-- Generator: Adobe Illustrator 21.1.0, SVG Export Plug-In . SVG Version: 6.00 Build 0)  -->
<svg version="1.1" id="&#x421;&#x43B;&#x43E;&#x439;_1"
	 xmlns="http://www.w3.org/2000/svg" xmlns:xlink="http://www.w3.org/1999/xlink" x="0px" y="0px" viewBox="0 0 49.92 93.84"
	 style="enable-background:new 0 0 49.92 93.84;" xml:space="preserve">
<g>
	<g>

		<path style="clip-path:url(#SVGID_2_);" d="M44.16,91.92c0.641,0.64,1.442,0.961,2.32,0.961c0.879,0,1.68-0.321,2.321-0.961
			c1.277-1.281,1.277-3.36,0-4.641L8,46.478L48.801,5.682c1.277-1.282,1.277-3.364,0-4.641c-1.281-1.281-3.36-1.281-4.641,0
			L0.961,44.158c-1.281,1.281-1.281,3.363,0,4.641L44.16,91.92z M44.16,91.92"/>
	</g>
</g>
</svg>
