<?xml version="1.0" encoding="iso-8859-1"?>
<!-- Generator: Adobe Illustrator 21.1.0, SVG Export Plug-In . SVG Version: 6.00 Build 0)  -->
<svg version="1.1" id="&#x421;&#x43B;&#x43E;&#x439;_1"
	 xmlns="http://www.w3.org/2000/svg" xmlns:xlink="http://www.w3.org/1999/xlink" x="0px" y="0px" viewBox="0 0 24.801 33.598"
	 style="enable-background:new 0 0 24.801 33.598;" xml:space="preserve">
<g>
	<path d="M24.453,16.141l-23.199-16C1.008-0.027,0.691-0.046,0.43,0.091C0.164,0.231,0,0.501,0,0.802v32
		c0,0.296,0.164,0.57,0.43,0.707c0.113,0.062,0.242,0.089,0.371,0.089c0.16,0,0.316-0.046,0.453-0.14l23.199-16
		c0.219-0.149,0.348-0.395,0.348-0.656C24.801,16.536,24.672,16.29,24.453,16.141L24.453,16.141z M24.453,16.141"/>
</g>
</svg>
