<?xml version="1.0" encoding="iso-8859-1"?>
<!-- Generator: Adobe Illustrator 21.1.0, SVG Export Plug-In . SVG Version: 6.00 Build 0)  -->
<svg version="1.1" id="&#x421;&#x43B;&#x43E;&#x439;_1"
	 xmlns="http://www.w3.org/2000/svg" xmlns:xlink="http://www.w3.org/1999/xlink" x="0px" y="0px" viewBox="0 0 232.5 232.5"
	 style="enable-background:new 0 0 232.5 232.5;" xml:space="preserve">
<g>
	<path style="fill:#333333;" d="M195,101.25v-7.5C195,83.41,186.59,75,176.25,75H150V26.25h-37.5v-7.5C112.5,8.41,104.09,0,93.75,0
		h-37.5C45.91,0,37.5,8.41,37.5,18.75v7.5H0V210h82.5v22.5h150V101.25H195z M218.059,108.75L203.996,120l14.063,11.25h-23.442
		c-1.746-8.547-9.316-15-18.371-15H138.75c-9.055,0-16.629,6.453-18.371,15H96.938L111,120l-14.062-11.25H218.059z M225,112.801
		v14.394L216.004,120L225,112.801z M195,157.5c0,2.066-1.684,3.75-3.75,3.75c-2.066,0-3.75-1.684-3.75-3.75
		c0-2.066,1.684-3.75,3.75-3.75C193.316,153.75,195,155.434,195,157.5L195,157.5z M186.809,131.25h-58.618
		c1.551-4.352,5.676-7.5,10.559-7.5h37.5C181.133,123.75,185.258,126.895,186.809,131.25L186.809,131.25z M127.5,157.5
		c0,2.066-1.684,3.75-3.75,3.75c-2.066,0-3.75-1.684-3.75-3.75c0-2.066,1.684-3.75,3.75-3.75
		C125.816,153.75,127.5,155.434,127.5,157.5L127.5,157.5z M98.996,120L90,127.199v-14.398L98.996,120z M127.5,101.25v-7.5
		c0-6.203,5.047-11.25,11.25-11.25h3.75v18.75H127.5z M176.25,82.5c6.203,0,11.25,5.047,11.25,11.25v7.5H150V82.5H176.25z
		 M142.5,52.199L133.504,45l8.996-7.199V52.199z M45,18.75C45,12.547,50.047,7.5,56.25,7.5h37.5c6.203,0,11.25,5.047,11.25,11.25
		v7.5H45V18.75z M45,33.75h90.559L121.496,45l14.063,11.25h-23.442c-1.746-8.547-9.316-15-18.371-15H56.25
		c-9.055,0-16.629,6.453-18.371,15H14.441L28.504,45L14.441,33.75H45z M112.5,82.5c0,2.066-1.684,3.75-3.75,3.75
		S105,84.566,105,82.5c0-2.066,1.684-3.75,3.75-3.75S112.5,80.434,112.5,82.5L112.5,82.5z M104.309,56.25H45.691
		c1.551-4.352,5.676-7.5,10.559-7.5h37.5C98.633,48.75,102.758,51.895,104.309,56.25L104.309,56.25z M45,82.5
		c0,2.066-1.684,3.75-3.75,3.75c-2.066,0-3.75-1.684-3.75-3.75c0-2.066,1.684-3.75,3.75-3.75C43.316,78.75,45,80.434,45,82.5
		L45,82.5z M16.496,45L7.5,52.199V37.801L16.496,45z M7.5,202.5V63.75h30v8.191C33.145,73.492,30,77.617,30,82.5
		c0,6.203,5.047,11.25,11.25,11.25S52.5,88.703,52.5,82.5c0-4.883-3.148-9.008-7.5-10.559V63.75h60v8.191
		c-4.355,1.551-7.5,5.676-7.5,10.559c0,6.203,5.047,11.25,11.25,11.25c6.203,0,11.25-5.047,11.25-11.25
		c0-4.883-3.145-9.008-7.5-10.559V63.75h30V75h-3.75C128.41,75,120,83.41,120,93.75v7.5H82.5V202.5H7.5z M225,225H90v-86.25h30
		v8.191c-4.355,1.551-7.5,5.676-7.5,10.559c0,6.203,5.047,11.25,11.25,11.25c6.203,0,11.25-5.047,11.25-11.25
		c0-4.883-3.148-9.008-7.5-10.559v-8.191h60v8.191c-4.355,1.551-7.5,5.676-7.5,10.559c0,6.203,5.047,11.25,11.25,11.25
		c6.203,0,11.25-5.047,11.25-11.25c0-4.883-3.148-9.008-7.5-10.559v-8.191h30V225z M225,225"/>
</g>
</svg>
