<?xml version="1.0" encoding="iso-8859-1"?>
<!-- Generator: Adobe Illustrator 21.1.0, SVG Export Plug-In . SVG Version: 6.00 Build 0)  -->
<svg version="1.1" id="&#x421;&#x43B;&#x43E;&#x439;_1"
	 xmlns="http://www.w3.org/2000/svg" xmlns:xlink="http://www.w3.org/1999/xlink" x="0px" y="0px" viewBox="0 0 47.985 47.992"
	 style="enable-background:new 0 0 47.985 47.992;" xml:space="preserve">
<g>
	<path d="M0.801,24.801c0.441,0,0.801-0.36,0.801-0.801C1.602,11.648,11.648,1.602,24,1.602c5.062,0,9.902,1.691,13.84,4.796h-4.238
		c-0.442,0-0.801,0.36-0.801,0.801C32.801,7.641,33.16,8,33.602,8h6.332c0.05,0.004,0.101,0.004,0.152,0h0.715V0.801
		C40.801,0.359,40.441,0,40,0s-0.801,0.359-0.801,0.801v4.648C34.914,1.926,29.586,0,24,0C10.766,0,0,10.766,0,24
		C0,24.441,0.359,24.801,0.801,24.801L0.801,24.801z M0.801,24.801"/>
	<path d="M24,6.398C14.297,6.398,6.398,14.297,6.398,24c0,9.703,7.899,17.602,17.602,17.602c9.703,0,17.602-7.899,17.602-17.602
		C41.602,14.297,33.703,6.398,24,6.398L24,6.398z M24,40c-8.824,0-16-7.176-16-16c0-8.824,7.176-16,16-16c8.824,0,16,7.176,16,16
		C40,32.824,32.824,40,24,40L24,40z M24,40"/>
	<path d="M24,12c0.441,0,0.801-0.359,0.801-0.801V9.602c0-0.446-0.36-0.801-0.801-0.801s-0.801,0.355-0.801,0.801v1.597
		C23.199,11.641,23.559,12,24,12L24,12z M24,12"/>
	<path d="M24,36c-0.441,0-0.801,0.359-0.801,0.801v1.597c0,0.446,0.36,0.801,0.801,0.801s0.801-0.355,0.801-0.801v-1.597
		C24.801,36.359,24.441,36,24,36L24,36z M24,36"/>
	<path d="M36.801,24.801h1.597c0.442,0,0.801-0.36,0.801-0.801c0-0.441-0.359-0.801-0.801-0.801h-1.597
		C36.359,23.199,36,23.559,36,24C36,24.441,36.359,24.801,36.801,24.801L36.801,24.801z M36.801,24.801"/>
	<path d="M11.199,23.199H9.602c-0.442,0-0.801,0.36-0.801,0.801c0,0.441,0.359,0.801,0.801,0.801h1.597
		C11.641,24.801,12,24.441,12,24C12,23.559,11.641,23.199,11.199,23.199L11.199,23.199z M11.199,23.199"/>
	<path d="M24.801,20.113V16c0-0.441-0.36-0.801-0.801-0.801s-0.801,0.36-0.801,0.801v4.113c-1.375,0.36-2.398,1.598-2.398,3.086
		c0,0.594,0.172,1.141,0.453,1.617l-6.621,6.618c-0.313,0.312-0.313,0.82,0,1.132c0.156,0.157,0.363,0.235,0.566,0.235
		c0.207,0,0.41-0.078,0.567-0.235l6.621-6.621c0.472,0.282,1.019,0.453,1.613,0.453c1.766,0,3.199-1.433,3.199-3.199
		C27.199,21.711,26.176,20.473,24.801,20.113L24.801,20.113z M24,24.801c-0.883,0-1.602-0.719-1.602-1.602
		c0-0.883,0.719-1.597,1.602-1.597c0.883,0,1.602,0.714,1.602,1.597C25.602,24.082,24.883,24.801,24,24.801L24,24.801z M24,24.801"
		/>
	<path d="M9.512,42.129C9.246,42.48,9.32,42.984,9.68,43.246c0.136,0.106,0.304,0.152,0.472,0.152c0.246,0,0.489-0.101,0.649-0.32
		c0.254-0.351,0.183-0.855-0.168-1.117C10.277,41.695,9.777,41.77,9.512,42.129L9.512,42.129z M9.512,42.129"/>
	<path d="M5.785,37.016c-0.258-0.352-0.762-0.442-1.121-0.184c-0.359,0.266-0.441,0.762-0.184,1.121
		c0.161,0.215,0.399,0.336,0.657,0.336c0.16,0,0.32-0.051,0.465-0.152C5.961,37.879,6.039,37.375,5.785,37.016L5.785,37.016z
		 M5.785,37.016"/>
	<path d="M6.094,38.762c-0.328,0.293-0.36,0.797-0.063,1.125c0.153,0.183,0.375,0.273,0.602,0.273c0.183,0,0.375-0.062,0.527-0.199
		c0.328-0.297,0.36-0.801,0.063-1.129C6.938,38.496,6.434,38.473,6.094,38.762L6.094,38.762z M6.094,38.762"/>
	<path d="M8.848,40.48c-0.321-0.296-0.832-0.273-1.129,0.047c-0.305,0.328-0.278,0.832,0.051,1.137
		c0.152,0.137,0.343,0.207,0.535,0.207c0.215,0,0.429-0.086,0.59-0.254c0.296-0.328,0.281-0.832-0.047-1.129V40.48z M8.848,40.48"/>
	<path d="M4.535,35.07H4.527c-0.215-0.383-0.703-0.519-1.086-0.293c-0.386,0.215-0.519,0.703-0.296,1.086
		c0.144,0.258,0.414,0.403,0.695,0.403c0.129,0,0.273-0.036,0.39-0.106C4.617,35.945,4.754,35.457,4.535,35.07L4.535,35.07z
		 M4.535,35.07"/>
	<path d="M47.152,25.695h0.032c0.433,0,0.785-0.343,0.8-0.765c0.016-0.45-0.328-0.821-0.769-0.832
		c-0.438-0.02-0.817,0.328-0.832,0.765C46.367,25.305,46.711,25.68,47.152,25.695L47.152,25.695z M47.152,25.695"/>
	<path d="M1.008,27.191c0.441-0.046,0.762-0.441,0.711-0.879c-0.047-0.441-0.438-0.761-0.879-0.714
		c-0.442,0.043-0.762,0.441-0.711,0.875c0.039,0.414,0.391,0.718,0.793,0.718C0.953,27.191,0.977,27.191,1.008,27.191L1.008,27.191z
		 M1.008,27.191"/>
	<path d="M1.457,29.543c0.43-0.086,0.711-0.512,0.613-0.941c-0.086-0.434-0.511-0.715-0.941-0.618
		c-0.434,0.086-0.715,0.512-0.617,0.946c0.074,0.375,0.41,0.629,0.777,0.629C1.344,29.559,1.398,29.559,1.457,29.543L1.457,29.543z
		 M1.457,29.543"/>
	<path d="M3.488,33c-0.176-0.398-0.648-0.586-1.054-0.406c-0.403,0.176-0.586,0.644-0.411,1.054
		c0.137,0.293,0.426,0.481,0.739,0.481c0.101,0,0.215-0.024,0.316-0.074C3.48,33.879,3.664,33.406,3.488,33L3.488,33z M3.488,33"/>
	<path d="M2.664,30.84c-0.129-0.426-0.586-0.656-1-0.52c-0.426,0.137-0.656,0.582-0.519,1.008c0.109,0.336,0.421,0.551,0.757,0.551
		c0.082,0,0.168-0.008,0.25-0.031C2.566,31.711,2.801,31.254,2.664,30.84L2.664,30.84z M2.664,30.84"/>
	<path d="M23.566,46.391c-0.437-0.008-0.804,0.343-0.812,0.785c-0.012,0.449,0.344,0.808,0.781,0.816h0.016
		c0.441,0,0.793-0.344,0.801-0.785C24.359,46.77,24.008,46.398,23.566,46.391L23.566,46.391z M23.566,46.391"/>
	<path d="M41.703,37.711c-0.269,0.344-0.207,0.851,0.137,1.121C41.992,38.945,42.16,39,42.336,39c0.23,0,0.473-0.105,0.633-0.313
		c0.269-0.343,0.207-0.847-0.145-1.121C42.473,37.297,41.977,37.359,41.703,37.711L41.703,37.711z M41.703,37.711"/>
	<path d="M36.664,42.465c-0.359,0.246-0.457,0.75-0.199,1.109c0.148,0.227,0.398,0.348,0.656,0.348c0.156,0,0.309-0.043,0.453-0.137
		c0.36-0.25,0.457-0.754,0.199-1.113C37.527,42.305,37.031,42.215,36.664,42.465L36.664,42.465z M36.664,42.465"/>
	<path d="M38.504,41.055c-0.336,0.289-0.375,0.793-0.09,1.129c0.16,0.183,0.387,0.281,0.609,0.281c0.184,0,0.368-0.067,0.52-0.192
		c0.336-0.289,0.379-0.793,0.09-1.128C39.344,40.809,38.84,40.77,38.504,41.055L38.504,41.055z M38.504,41.055"/>
	<path d="M44.129,35.551c-0.379-0.231-0.875-0.114-1.106,0.258c-0.23,0.375-0.121,0.871,0.254,1.101
		c0.137,0.082,0.282,0.121,0.426,0.121c0.266,0,0.527-0.129,0.68-0.375C44.617,36.281,44.504,35.781,44.129,35.551L44.129,35.551z
		 M44.129,35.551"/>
	<path d="M40.191,39.465c-0.312,0.316-0.296,0.824,0.024,1.129c0.152,0.148,0.351,0.222,0.555,0.222c0.207,0,0.421-0.082,0.574-0.25
		c0.304-0.32,0.297-0.824-0.024-1.129C41,39.137,40.496,39.145,40.191,39.465L40.191,39.465z M40.191,39.465"/>
	<path d="M47.078,26.488c-0.43-0.062-0.84,0.246-0.902,0.68c-0.067,0.441,0.238,0.84,0.679,0.902
		c0.04,0.008,0.079,0.008,0.114,0.008c0.39,0,0.734-0.285,0.789-0.683C47.824,26.961,47.52,26.551,47.078,26.488L47.078,26.488z
		 M47.078,26.488"/>
	<path d="M46.703,28.855c-0.43-0.105-0.863,0.161-0.976,0.582c-0.102,0.434,0.16,0.868,0.585,0.977
		c0.063,0.02,0.129,0.023,0.192,0.023c0.359,0,0.687-0.246,0.777-0.605C47.391,29.398,47.129,28.969,46.703,28.855L46.703,28.855z
		 M46.703,28.855"/>
	<path d="M12.559,43.246c-0.383-0.223-0.871-0.101-1.094,0.281c-0.235,0.379-0.106,0.875,0.269,1.098
		c0.129,0.078,0.274,0.113,0.411,0.113c0.269,0,0.535-0.136,0.687-0.394C13.062,43.969,12.938,43.48,12.559,43.246L12.559,43.246z
		 M12.559,43.246"/>
	<path d="M46.078,31.176c-0.414-0.153-0.879,0.062-1.023,0.48c-0.153,0.418,0.054,0.871,0.472,1.024
		c0.086,0.031,0.184,0.05,0.274,0.05c0.328,0,0.637-0.203,0.75-0.531C46.703,31.781,46.496,31.328,46.078,31.176L46.078,31.176z
		 M46.078,31.176"/>
	<path d="M45.215,33.414c-0.391-0.187-0.879-0.031-1.07,0.371c-0.192,0.399-0.024,0.879,0.367,1.07
		c0.113,0.055,0.23,0.082,0.351,0.082c0.297,0,0.586-0.167,0.723-0.449C45.777,34.086,45.617,33.609,45.215,33.414L45.215,33.414z
		 M45.215,33.414"/>
	<path d="M21.258,46.23c-0.442-0.054-0.832,0.258-0.891,0.7c-0.055,0.437,0.258,0.84,0.695,0.886v0.008h0.098
		c0.399,0,0.742-0.297,0.793-0.703C22.008,46.68,21.695,46.289,21.258,46.23L21.258,46.23z M21.258,46.23"/>
	<path d="M16.754,45.199c-0.418-0.144-0.875,0.074-1.02,0.496c-0.14,0.418,0.082,0.871,0.496,1.016
		c0.09,0.023,0.176,0.043,0.266,0.043c0.328,0,0.641-0.211,0.75-0.539C17.391,45.793,17.168,45.336,16.754,45.199L16.754,45.199z
		 M16.754,45.199"/>
	<path d="M18.977,45.832c-0.434-0.098-0.856,0.168-0.961,0.602c-0.094,0.429,0.175,0.863,0.601,0.957
		c0.063,0.015,0.117,0.015,0.184,0.015c0.359,0,0.695-0.246,0.773-0.613C19.68,46.359,19.406,45.93,18.977,45.832L18.977,45.832z
		 M18.977,45.832"/>
	<path d="M14.609,44.336c-0.41-0.191-0.882-0.016-1.066,0.383c-0.184,0.402-0.016,0.883,0.387,1.062
		c0.109,0.051,0.222,0.074,0.336,0.074c0.3,0,0.589-0.168,0.726-0.464C15.176,44.992,15.008,44.52,14.609,44.336L14.609,44.336z
		 M14.609,44.336"/>
	<path d="M28.176,46.008c-0.434,0.082-0.719,0.504-0.641,0.937c0.074,0.383,0.418,0.649,0.793,0.649c0.047,0,0.098,0,0.145-0.008
		c0.429-0.09,0.718-0.508,0.64-0.938C29.031,46.207,28.609,45.93,28.176,46.008L28.176,46.008z M28.176,46.008"/>
	<path d="M30.426,45.465c-0.426,0.117-0.664,0.566-0.539,0.992c0.105,0.344,0.425,0.566,0.769,0.566
		c0.071,0,0.153-0.007,0.231-0.031c0.425-0.129,0.664-0.578,0.539-1C31.297,45.574,30.848,45.336,30.426,45.465L30.426,45.465z
		 M30.426,45.465"/>
	<path d="M32.609,44.68c-0.41,0.168-0.601,0.64-0.433,1.05c0.129,0.301,0.426,0.485,0.734,0.485c0.106,0,0.211-0.016,0.313-0.055
		c0.41-0.176,0.601-0.64,0.433-1.047C33.48,44.703,33.016,44.512,32.609,44.68L32.609,44.68z M32.609,44.68"/>
	<path d="M25.879,46.32c-0.441,0.039-0.77,0.422-0.727,0.864c0.032,0.418,0.383,0.734,0.801,0.734h0.063V47.91
		c0.441-0.031,0.765-0.414,0.726-0.855C26.711,46.617,26.32,46.289,25.879,46.32L25.879,46.32z M25.879,46.32"/>
	<path d="M34.695,43.68c-0.39,0.207-0.535,0.695-0.32,1.082c0.145,0.269,0.418,0.422,0.703,0.422c0.129,0,0.258-0.032,0.379-0.106
		c0.391-0.207,0.535-0.695,0.316-1.078C35.566,43.609,35.078,43.465,34.695,43.68L34.695,43.68z M34.695,43.68"/>
</g>
</svg>
